%YAML 1.1
%TAG !u! tag:unity3d.com,2011:
--- !u!1045 &1
EditorBuildSettings:
  m_ObjectHideFlags: 0
  serializedVersion: 2
  m_Scenes:
  - enabled: 1
    path: Assets/Scenes/a/puzzle.unity
    guid: 0c5e349370a69e64583d2013077911c9
  - enabled: 1
    path: Assets/Scenes/a/HighScore.unity
    guid: 8da44077fc3746644af0e9fa6afdae64
  - enabled: 1
    path: Assets/Scenes/puzzles.unity
    guid: 16dced42c50b276409b68f6eb5b0ddee
  - enabled: 1
    path: Assets/Scenes/score.unity
    guid: cd03d6dc09a269c429ebb826483f9fa6
  - enabled: 1
    path: Assets/Scenes/mainmenu.unity
    guid: 0d39d83d40f53214597c2c008d92b377
  m_configObjects: {}
